JOUR479X Website - Third and Six
…
rushing2023<-rushing_plays %>%  
  filter(year == '2023')

Out of the four most recent completed seasons and this season so far, teams ran the ball on 3rd and 6 the most in 2022, 748 times. This is more than 200 than the next closest season which is 2021.

Code

rushing2019 %>% 
  group_by(pos_team) %>% 
  summarise(count =n()) %>% 
  arrange(desc(count))

# A tibble: 151 × 2
   pos_team         count
   <chr>            <int>
 1 Georgia Southern    13
 2 Navy                12
 3 Northwestern        11
 4 Nebraska            10
 5 Buffalo              8
 6 Louisiana            8
 7 Army                 7
 8 Notre Dame           7
 9 Oklahoma State       7
10 Old Dominion         7
# ℹ 141 more rows

Code

rushing2020 %>% 
  group_by(pos_team) %>% 
  summarise(count =n()) %>% 
  arrange(desc(count))

# A tibble: 115 × 2
   pos_team             count
   <chr>                <int>
 1 Navy                    12
 2 Georgia Southern         7
 3 Army                     6
 4 Kansas                   6
 5 Air Force                5
 6 Liberty                  5
 7 Memphis                  5
 8 Southern Mississippi     5
 9 Western Kentucky         5
10 Arkansas                 4
# ℹ 105 more rows

Code

rushing2021 %>% 
  group_by(pos_team) %>% 
  summarise(count =n()) %>% 
  arrange(desc(count))

# A tibble: 147 × 2
   pos_team   count
   <chr>      <int>
 1 Army          16
 2 Baylor        13
 3 Arkansas      10
 4 Louisiana     10
 5 Air Force      9
 6 Kent State     9
 7 Navy           9
 8 New Mexico     9
 9 Rice           9
10 Utah State     8
# ℹ 137 more rows

Code

rushing2022 %>% 
  group_by(pos_team) %>% 
  summarise(count =n()) %>% 
  arrange(desc(count))

# A tibble: 237 × 2
   pos_team           count
   <chr>              <int>
 1 Navy                  13
 2 Kennesaw State        12
 3 The Citadel           10
 4 Army                   9
 5 William & Mary         9
 6 Auburn                 8
 7 Duke                   8
 8 Florida State          8
 9 South Dakota State     8
10 UNLV                   8
# ℹ 227 more rows

Code

rushing2023 %>% 
  group_by(pos_team) %>% 
  summarise(count =n()) %>% 
  arrange(desc(count))

# A tibble: 193 × 2
   pos_team       count
   <chr>          <int>
 1 South Florida      8
 2 West Virginia      7
 3 Air Force          6
 4 Boston College     6
 5 UAB                6
 6 Army               5
 7 Cal Poly           5
 8 Prairie View       5
 9 Utah               5
10 Bowling Green      4
# ℹ 183 more rows
…
